<?xml version="1.0" encoding="UTF-8" standalone="no"?>
<svg
   clip-rule="evenodd"
   fill-rule="evenodd"
   stroke-linejoin="round"
   stroke-miterlimit="2"
   viewBox="0 0 48 48"
   version="1.1"
   id="svg3"
   sodipodi:docname="system-config-boot.svg"
   inkscape:version="1.3 (0e150ed6c4, 2023-07-21)"
   xmlns:inkscape="http://www.inkscape.org/namespaces/inkscape"
   xmlns:sodipodi="http://sodipodi.sourceforge.net/DTD/sodipodi-0.dtd"
   xmlns="http://www.w3.org/2000/svg"
   xmlns:svg="http://www.w3.org/2000/svg">
  <defs
     id="defs3" />
  <sodipodi:namedview
     id="namedview3"
     pagecolor="#ffffff"
     bordercolor="#000000"
     borderopacity="0.25"
     inkscape:showpageshadow="2"
     inkscape:pageopacity="0.0"
     inkscape:pagecheckerboard="0"
     inkscape:deskcolor="#d1d1d1"
     inkscape:zoom="16.729167"
     inkscape:cx="24"
     inkscape:cy="24"
     inkscape:window-width="1920"
     inkscape:window-height="1012"
     inkscape:window-x="0"
     inkscape:window-y="37"
     inkscape:window-maximized="1"
     inkscape:current-layer="svg3" />
  <linearGradient
     id="a"
     x2="1"
     gradientTransform="matrix(.797685 -42.8718 42.8718 .797685 139.211 48.614)"
     gradientUnits="userSpaceOnUse">
    <stop
       stop-color="#404e5b"
       offset="0"
       id="stop1" />
    <stop
       stop-color="#6c7884"
       offset="1"
       id="stop2" />
  </linearGradient>
  <path
     d="m36.315 17.802c-.961-1.923-2.314-3.535-4.057-4.836-.501-.383-1.069-.532-1.702-.448-.633.083-1.134.382-1.504.895-.382.502-.529 1.066-.439 1.693.089.627.385 1.131.887 1.513 1.169.884 2.075 1.965 2.713 3.243.639 1.277.958 2.639.958 4.083 0 1.242-.242 2.427-.725 3.556-.484 1.128-1.138 2.105-1.962 2.929-.824.823-1.8 1.477-2.928 1.961-1.129.484-2.314.726-3.556.726s-2.427-.242-3.555-.726c-1.129-.484-2.105-1.138-2.929-1.961-.824-.824-1.478-1.801-1.961-2.929-.484-1.128-.726-2.314-.726-3.556 0-1.444.32-2.806.959-4.083.639-1.278 1.543-2.359 2.713-3.243.502-.382.797-.886.887-1.513.089-.627-.057-1.191-.439-1.693-.37-.513-.869-.812-1.496-.895-.627-.084-1.197.065-1.71.448-1.744 1.301-3.096 2.913-4.057 4.836-.962 1.922-1.442 3.97-1.442 6.143 0 1.863.364 3.642 1.092 5.338.729 1.696 1.708 3.159 2.938 4.389 1.23 1.229 2.693 2.209 4.388 2.937 1.696.728 3.475 1.093 5.338 1.093s3.642-.365 5.338-1.093 3.159-1.708 4.388-2.937c1.23-1.23 2.209-2.693 2.938-4.389.728-1.696 1.092-3.475 1.092-5.338 0-2.173-.48-4.221-1.441-6.143zm-12.315 6.144c.621 0 1.158-.227 1.612-.681s.681-.991.681-1.612v-11.464c0-.621-.227-1.158-.681-1.612s-.991-.681-1.612-.681-1.159.227-1.612.681c-.454.454-.681.991-.681 1.612v11.464c0 .621.227 1.158.681 1.612.453.454.991.681 1.612.681z"
     id="path3"
     style="fill:#ffffff;fill-opacity:1" />
</svg>
