<?xml version="1.0" encoding="UTF-8" standalone="no"?>
<svg
   clip-rule="evenodd"
   fill-rule="evenodd"
   viewBox="0 0 48 48"
   version="1.1"
   id="svg5"
   sodipodi:docname="system-reboot.svg"
   inkscape:version="1.3 (0e150ed6c4, 2023-07-21)"
   xmlns:inkscape="http://www.inkscape.org/namespaces/inkscape"
   xmlns:sodipodi="http://sodipodi.sourceforge.net/DTD/sodipodi-0.dtd"
   xmlns="http://www.w3.org/2000/svg"
   xmlns:svg="http://www.w3.org/2000/svg">
  <defs
     id="defs5" />
  <sodipodi:namedview
     id="namedview5"
     pagecolor="#ffffff"
     bordercolor="#000000"
     borderopacity="0.25"
     inkscape:showpageshadow="2"
     inkscape:pageopacity="0.0"
     inkscape:pagecheckerboard="0"
     inkscape:deskcolor="#d1d1d1"
     inkscape:zoom="16.729167"
     inkscape:cx="24"
     inkscape:cy="24"
     inkscape:window-width="1920"
     inkscape:window-height="1012"
     inkscape:window-x="0"
     inkscape:window-y="37"
     inkscape:window-maximized="1"
     inkscape:current-layer="svg5" />
  <linearGradient
     id="a"
     x2="1"
     gradientTransform="matrix(.797685 -42.8718 42.8718 .797685 139.211 48.614)"
     gradientUnits="userSpaceOnUse">
    <stop
       stop-color="#404e5b"
       offset="0"
       id="stop1" />
    <stop
       stop-color="#6c7884"
       offset="1"
       id="stop2" />
  </linearGradient>
  <linearGradient
     id="b"
     x2="1"
     gradientTransform="matrix(.0750513 10.7877 -10.7877 .0750513 67.4652 -11.0194)"
     gradientUnits="userSpaceOnUse">
    <stop
       stop-color="#566069"
       offset="0"
       id="stop3" />
    <stop
       stop-color="#6c7884"
       offset="1"
       id="stop4" />
  </linearGradient>
  <path
     d="m36.186 23.793h-2.302c-.582 0-1.053.466-1.073 1.041-.478 4.443-4.238 7.902-8.814 7.902-4.897 0-8.862-3.961-8.862-8.85 0-4.845 3.993-8.782 8.826-8.85v1.438c0 .655.466.948 1.037.655l7.388-3.781c.57-.293.57-.767 0-1.06l-7.388-3.773c-.571-.293-1.037 0-1.037.651v1.45c-7.283.069-13.257 5.99-13.257 13.278 0 7.331 5.95 13.277 13.294 13.277 7.022 0 12.775-5.436 13.257-12.329.004-.579-.483-1.049-1.069-1.049z"
     stroke="url(#b)"
     stroke-width=".05"
     id="path5"
     style="fill:#ffffff;fill-opacity:1;stroke:none" />
</svg>
